<?xml version="1.0" encoding="UTF-8" standalone="no"?>
<!-- Created with Inkscape (http://www.inkscape.org/) -->

<svg
   xmlns:dc="http://purl.org/dc/elements/1.1/"
   xmlns:cc="http://creativecommons.org/ns#"
   xmlns:rdf="http://www.w3.org/1999/02/22-rdf-syntax-ns#"
   xmlns:svg="http://www.w3.org/2000/svg"
   xmlns="http://www.w3.org/2000/svg"
   xmlns:sodipodi="http://sodipodi.sourceforge.net/DTD/sodipodi-0.dtd"
   xmlns:inkscape="http://www.inkscape.org/namespaces/inkscape"
   width="425.19684"
   height="248.03149"
   id="svg2"
   version="1.1"
   inkscape:version="0.48.0 r9654"
   sodipodi:docname="dsm-hierarchy.svg">
  <defs
     id="defs4" />
  <sodipodi:namedview
     id="base"
     pagecolor="#ffffff"
     bordercolor="#666666"
     borderopacity="1.0"
     inkscape:pageopacity="0.0"
     inkscape:pageshadow="2"
     inkscape:zoom="2.5311019"
     inkscape:cx="200.865"
     inkscape:cy="124.01575"
     inkscape:document-units="px"
     inkscape:current-layer="layer1"
     showgrid="false"
     units="mm"
     inkscape:window-width="1920"
     inkscape:window-height="1126"
     inkscape:window-x="1440"
     inkscape:window-y="25"
     inkscape:window-maximized="1" />
  <metadata
     id="metadata7">
    <rdf:RDF>
      <cc:Work
         rdf:about="">
        <dc:format>image/svg+xml</dc:format>
        <dc:type
           rdf:resource="http://purl.org/dc/dcmitype/StillImage" />
        <dc:title />
      </cc:Work>
    </rdf:RDF>
  </metadata>
  <g
     inkscape:label="Layer 1"
     inkscape:groupmode="layer"
     id="layer1"
     transform="translate(0,-804.33066)">
    <g
       id="g3916"
       transform="matrix(1.1421123,0,0,1.1421123,-39.109973,-112.68543)">
      <rect
         ry="16.706902"
         rx="17.167355"
         y="820.75958"
         x="172.70374"
         height="28.415033"
         width="74.310013"
         id="rect3004"
         style="color:#000000;fill:#e0e0e0;fill-opacity:1;stroke:#000000;stroke-width:1.75114119;stroke-opacity:1;marker:none;visibility:visible;display:inline;overflow:visible;enable-background:accumulate" />
      <text
         sodipodi:linespacing="100%"
         id="text3776"
         y="837.99933"
         x="209.79135"
         style="font-size:12px;font-style:normal;font-variant:normal;font-weight:normal;font-stretch:normal;text-align:center;line-height:100%;letter-spacing:0px;word-spacing:0px;writing-mode:lr-tb;text-anchor:middle;fill:#000000;fill-opacity:1;stroke:none;font-family:Arial;-inkscape-font-specification:Arial"
         xml:space="preserve"><tspan
           y="837.99933"
           x="209.79135"
           id="tspan3778"
           sodipodi:role="line">Aggregator</tspan></text>
    </g>
    <rect
       style="color:#000000;fill:#e0e0e0;fill-opacity:1;stroke:#000000;stroke-width:1.99999988;stroke-opacity:1;marker:none;visibility:visible;display:inline;overflow:visible;enable-background:accumulate"
       id="rect3004-9"
       width="84.870377"
       height="32.453159"
       x="158.82574"
       y="907.74878"
       rx="19.607046"
       ry="19.081158" />
    <text
       xml:space="preserve"
       style="font-size:13.70534801px;font-style:normal;font-variant:normal;font-weight:normal;font-stretch:normal;text-align:center;line-height:100%;letter-spacing:0px;word-spacing:0px;writing-mode:lr-tb;text-anchor:middle;fill:#000000;fill-opacity:1;stroke:none;font-family:Arial;-inkscape-font-specification:Arial"
       x="201.18394"
       y="927.43848"
       id="text3776-8"
       sodipodi:linespacing="100%"><tspan
         sodipodi:role="line"
         id="tspan3778-0"
         x="201.18394"
         y="927.43848">Household</tspan></text>
    <g
       id="g3815"
       transform="matrix(1.1421123,0,0,1.1421123,-95.95208,-106.38503)">
      <rect
         ry="5.6502252"
         rx="5.4843473"
         y="949.83594"
         x="183.95505"
         height="14.634803"
         width="44.244057"
         id="rect3004-5"
         style="color:#000000;fill:#e0e0e0;fill-opacity:1;stroke:#000000;stroke-width:0.8755706;stroke-miterlimit:4;stroke-opacity:1;stroke-dasharray:none;marker:none;visibility:visible;display:inline;overflow:visible;enable-background:accumulate" />
      <text
         sodipodi:linespacing="100%"
         id="text3776-4"
         y="960.18555"
         x="206.00969"
         style="font-size:8px;font-style:normal;font-variant:normal;font-weight:normal;font-stretch:normal;text-align:center;line-height:100%;letter-spacing:0px;word-spacing:0px;writing-mode:lr-tb;text-anchor:middle;fill:#000000;fill-opacity:1;stroke:none;font-family:Arial;-inkscape-font-specification:Arial"
         xml:space="preserve"><tspan
           y="960.18555"
           x="206.00969"
           id="tspan3778-3"
           sodipodi:role="line">Appliance</tspan></text>
    </g>
    <g
       id="g3815-4"
       transform="matrix(1.1421123,0,0,1.1421123,-63.834843,-82.639123)">
      <rect
         ry="5.6502252"
         rx="5.4843473"
         y="949.83594"
         x="183.95505"
         height="14.634803"
         width="44.244057"
         id="rect3004-5-3"
         style="color:#000000;fill:#e0e0e0;fill-opacity:1;stroke:#000000;stroke-width:0.8755706;stroke-miterlimit:4;stroke-opacity:1;stroke-dasharray:none;marker:none;visibility:visible;display:inline;overflow:visible;enable-background:accumulate" />
      <text
         sodipodi:linespacing="100%"
         id="text3776-4-4"
         y="960.18555"
         x="206.00969"
         style="font-size:8px;font-style:normal;font-variant:normal;font-weight:normal;font-stretch:normal;text-align:center;line-height:100%;letter-spacing:0px;word-spacing:0px;writing-mode:lr-tb;text-anchor:middle;fill:#000000;fill-opacity:1;stroke:none;font-family:Arial;-inkscape-font-specification:Arial"
         xml:space="preserve"><tspan
           y="960.18555"
           x="206.00969"
           id="tspan3778-3-7"
           sodipodi:role="line">Appliance</tspan></text>
    </g>
    <g
       id="g3815-7"
       transform="matrix(1.1421123,0,0,1.1421123,-4.3069171,-82.639123)">
      <rect
         ry="5.6502252"
         rx="5.4843473"
         y="949.83594"
         x="183.95505"
         height="14.634803"
         width="44.244057"
         id="rect3004-5-0"
         style="color:#000000;fill:#e0e0e0;fill-opacity:1;stroke:#000000;stroke-width:0.8755706;stroke-miterlimit:4;stroke-opacity:1;stroke-dasharray:none;marker:none;visibility:visible;display:inline;overflow:visible;enable-background:accumulate" />
      <text
         sodipodi:linespacing="100%"
         id="text3776-4-7"
         y="960.18555"
         x="206.00969"
         style="font-size:8px;font-style:normal;font-variant:normal;font-weight:normal;font-stretch:normal;text-align:center;line-height:100%;letter-spacing:0px;word-spacing:0px;writing-mode:lr-tb;text-anchor:middle;fill:#000000;fill-opacity:1;stroke:none;font-family:Arial;-inkscape-font-specification:Arial"
         xml:space="preserve"><tspan
           y="960.18555"
           x="206.00969"
           id="tspan3778-3-4"
           sodipodi:role="line">Appliance</tspan></text>
    </g>
    <g
       id="g3815-5"
       transform="matrix(1.1421123,0,0,1.1421123,27.810322,-106.38503)">
      <rect
         ry="5.6502252"
         rx="5.4843473"
         y="949.83594"
         x="183.95505"
         height="14.634803"
         width="44.244057"
         id="rect3004-5-30"
         style="color:#000000;fill:#e0e0e0;fill-opacity:1;stroke:#000000;stroke-width:0.8755706;stroke-miterlimit:4;stroke-opacity:1;stroke-dasharray:none;marker:none;visibility:visible;display:inline;overflow:visible;enable-background:accumulate" />
      <text
         sodipodi:linespacing="100%"
         id="text3776-4-72"
         y="960.18555"
         x="206.00969"
         style="font-size:8px;font-style:normal;font-variant:normal;font-weight:normal;font-stretch:normal;text-align:center;line-height:100%;letter-spacing:0px;word-spacing:0px;writing-mode:lr-tb;text-anchor:middle;fill:#000000;fill-opacity:1;stroke:none;font-family:Arial;-inkscape-font-specification:Arial"
         xml:space="preserve"><tspan
           y="960.18555"
           x="206.00969"
           id="tspan3778-3-9"
           sodipodi:role="line">Appliance</tspan></text>
    </g>
    <path
       style="fill:none;stroke:#000000;stroke-width:0.99999994px;stroke-linecap:butt;stroke-linejoin:miter;stroke-opacity:1"
       d="m 147.63981,978.43428 37.64417,-38.23234"
       id="path3873"
       inkscape:connector-type="polyline"
       inkscape:connector-curvature="0"
       inkscape:connection-start="#g3815"
       inkscape:connection-start-point="d4"
       inkscape:connection-end="#rect3004-9"
       inkscape:connection-end-point="d4" />
    <path
       style="fill:none;stroke:#000000;stroke-width:0.99999994px;stroke-linecap:butt;stroke-linejoin:miter;stroke-opacity:1"
       d="m 174.39891,1002.1802 21.28847,-61.97826"
       id="path3875"
       inkscape:connector-type="polyline"
       inkscape:connector-curvature="0"
       inkscape:connection-start="#g3815-4"
       inkscape:connection-start-point="d4"
       inkscape:connection-end="#rect3004-9"
       inkscape:connection-end-point="d4" />
    <path
       style="fill:none;stroke:#000000;stroke-width:0.99999994px;stroke-linecap:butt;stroke-linejoin:miter;stroke-opacity:1;display:inline"
       d="M 254.93642,978.43428 217.25408,940.20194"
       id="path3879"
       inkscape:connector-type="polyline"
       inkscape:connector-curvature="0"
       inkscape:connection-end="#rect3004-9"
       inkscape:connection-end-point="d4"
       inkscape:connection-start="#g3815-5"
       inkscape:connection-start-point="d4" />
    <path
       style="fill:none;stroke:#000000;stroke-width:0.99999994px;stroke-linecap:butt;stroke-linejoin:miter;stroke-opacity:1"
       d="m 206.84624,940.20194 21.33336,61.97826"
       id="path3885"
       inkscape:connector-type="polyline"
       inkscape:connector-curvature="0"
       inkscape:connection-start="#rect3004-9"
       inkscape:connection-start-point="d4"
       inkscape:connection-end="#g3815-7"
       inkscape:connection-end-point="d4" />
    <path
       inkscape:connection-end-point="d4"
       inkscape:connection-end="#rect3004"
       inkscape:connection-start-point="d4"
       inkscape:connection-start="#rect3004-9"
       inkscape:connector-curvature="0"
       inkscape:connector-type="polyline"
       id="path3914"
       d="m 201.12636,907.74878 -0.41951,-50.58144"
       style="fill:none;stroke:#000000;stroke-width:0.99999994px;stroke-linecap:butt;stroke-linejoin:miter;stroke-opacity:1" />
    <rect
       style="color:#000000;fill:#e0e0e0;fill-opacity:1;stroke:#000000;stroke-width:2;stroke-opacity:1;marker:none;visibility:visible;display:inline;overflow:visible;enable-background:accumulate"
       id="rect3004-9-9"
       width="54.663673"
       height="20.902567"
       x="299.93912"
       y="901.10754"
       rx="7.079566"
       ry="7.079566" />
    <text
       xml:space="preserve"
       style="font-size:8.8273983px;font-style:normal;font-variant:normal;font-weight:normal;font-stretch:normal;text-align:center;line-height:100%;letter-spacing:0px;word-spacing:0px;writing-mode:lr-tb;text-anchor:middle;fill:#000000;fill-opacity:1;stroke:none;font-family:Arial;-inkscape-font-specification:Arial"
       x="327.22137"
       y="913.78943"
       id="text3776-8-0"
       sodipodi:linespacing="100%"><tspan
         sodipodi:role="line"
         id="tspan3778-0-1"
         x="327.22137"
         y="913.78943">Household</tspan></text>
    <g
       id="g3815-0"
       transform="matrix(0.7356165,0,0,0.7356165,135.84074,247.92001)">
      <rect
         ry="8.7724943"
         rx="8.5149546"
         y="949.83594"
         x="183.95505"
         height="14.634803"
         width="44.244057"
         id="rect3004-5-8"
         style="color:#000000;fill:#e0e0e0;fill-opacity:1;stroke:#000000;stroke-width:1.35940397;stroke-miterlimit:4;stroke-opacity:1;stroke-dasharray:none;marker:none;visibility:visible;display:inline;overflow:visible;enable-background:accumulate" />
      <text
         sodipodi:linespacing="100%"
         id="text3776-4-1"
         y="960.18555"
         x="206.00969"
         style="font-size:8px;font-style:normal;font-variant:normal;font-weight:normal;font-stretch:normal;text-align:center;line-height:100%;letter-spacing:0px;word-spacing:0px;writing-mode:lr-tb;text-anchor:middle;fill:#000000;fill-opacity:1;stroke:none;font-family:Arial;-inkscape-font-specification:Arial"
         xml:space="preserve"><tspan
           y="960.18555"
           x="206.00969"
           id="tspan3778-3-6"
           sodipodi:role="line">Appliance</tspan></text>
    </g>
    <g
       id="g3815-4-7"
       transform="matrix(0.7356165,0,0,0.7356165,156.52694,263.21437)">
      <rect
         ry="8.7724943"
         rx="8.5149546"
         y="949.83594"
         x="183.95505"
         height="14.634803"
         width="44.244057"
         id="rect3004-5-3-88"
         style="color:#000000;fill:#e0e0e0;fill-opacity:1;stroke:#000000;stroke-width:1.35940397;stroke-miterlimit:4;stroke-opacity:1;stroke-dasharray:none;marker:none;visibility:visible;display:inline;overflow:visible;enable-background:accumulate" />
      <text
         sodipodi:linespacing="100%"
         id="text3776-4-4-2"
         y="960.18555"
         x="206.00969"
         style="font-size:8px;font-style:normal;font-variant:normal;font-weight:normal;font-stretch:normal;text-align:center;line-height:100%;letter-spacing:0px;word-spacing:0px;writing-mode:lr-tb;text-anchor:middle;fill:#000000;fill-opacity:1;stroke:none;font-family:Arial;-inkscape-font-specification:Arial"
         xml:space="preserve"><tspan
           y="960.18555"
           x="206.00969"
           id="tspan3778-3-7-1"
           sodipodi:role="line">Appliance</tspan></text>
    </g>
    <g
       id="g3815-7-3"
       transform="matrix(0.7356165,0,0,0.7356165,194.86794,263.21437)">
      <rect
         ry="8.7724943"
         rx="8.5149546"
         y="949.83594"
         x="183.95505"
         height="14.634803"
         width="44.244057"
         id="rect3004-5-0-8"
         style="color:#000000;fill:#e0e0e0;fill-opacity:1;stroke:#000000;stroke-width:1.35940397;stroke-miterlimit:4;stroke-opacity:1;stroke-dasharray:none;marker:none;visibility:visible;display:inline;overflow:visible;enable-background:accumulate" />
      <text
         sodipodi:linespacing="100%"
         id="text3776-4-7-9"
         y="960.18555"
         x="206.00969"
         style="font-size:8px;font-style:normal;font-variant:normal;font-weight:normal;font-stretch:normal;text-align:center;line-height:100%;letter-spacing:0px;word-spacing:0px;writing-mode:lr-tb;text-anchor:middle;fill:#000000;fill-opacity:1;stroke:none;font-family:Arial;-inkscape-font-specification:Arial"
         xml:space="preserve"><tspan
           y="960.18555"
           x="206.00969"
           id="tspan3778-3-4-3"
           sodipodi:role="line">Appliance</tspan></text>
    </g>
    <g
       id="g3815-5-5"
       transform="matrix(0.7356165,0,0,0.7356165,215.55415,247.92001)">
      <rect
         ry="8.7724943"
         rx="8.5149546"
         y="949.83594"
         x="183.95505"
         height="14.634803"
         width="44.244057"
         id="rect3004-5-30-4"
         style="color:#000000;fill:#e0e0e0;fill-opacity:1;stroke:#000000;stroke-width:1.35940397;stroke-miterlimit:4;stroke-opacity:1;stroke-dasharray:none;marker:none;visibility:visible;display:inline;overflow:visible;enable-background:accumulate" />
      <text
         sodipodi:linespacing="100%"
         id="text3776-4-72-1"
         y="960.18555"
         x="206.00969"
         style="font-size:8px;font-style:normal;font-variant:normal;font-weight:normal;font-stretch:normal;text-align:center;line-height:100%;letter-spacing:0px;word-spacing:0px;writing-mode:lr-tb;text-anchor:middle;fill:#000000;fill-opacity:1;stroke:none;font-family:Arial;-inkscape-font-specification:Arial"
         xml:space="preserve"><tspan
           y="960.18555"
           x="206.00969"
           id="tspan3778-3-9-2"
           sodipodi:role="line">Appliance</tspan></text>
    </g>
    <path
       style="fill:none;stroke:#000000;stroke-width:1px;stroke-linecap:butt;stroke-linejoin:miter;stroke-opacity:1"
       d="m 292.73443,946.635 24.24603,-24.62489"
       id="path3873-2"
       inkscape:connector-type="polyline"
       inkscape:connector-curvature="0"
       inkscape:connection-start="#g3815-0"
       inkscape:connection-start-point="d4"
       inkscape:connection-end="#rect3004-9-9"
       inkscape:connection-end-point="d4" />
    <path
       style="fill:none;stroke:#000000;stroke-width:1px;stroke-linecap:butt;stroke-linejoin:miter;stroke-opacity:1"
       d="m 309.96954,961.92936 13.71158,-39.91925"
       id="path3875-7"
       inkscape:connector-type="polyline"
       inkscape:connector-curvature="0"
       inkscape:connection-start="#g3815-4-7"
       inkscape:connection-start-point="d4"
       inkscape:connection-end="#rect3004-9-9"
       inkscape:connection-end-point="d4" />
    <path
       style="fill:none;stroke:#000000;stroke-width:1px;stroke-linecap:butt;stroke-linejoin:miter;stroke-opacity:1;display:inline"
       d="M 361.84249,946.635 337.57188,922.01011"
       id="path3879-7"
       inkscape:connector-type="polyline"
       inkscape:connector-curvature="0"
       inkscape:connection-end="#rect3004-9-9"
       inkscape:connection-end-point="d4"
       inkscape:connection-start="#g3815-5-5"
       inkscape:connection-start-point="d4" />
    <path
       style="fill:none;stroke:#000000;stroke-width:1px;stroke-linecap:butt;stroke-linejoin:miter;stroke-opacity:1"
       d="m 330.86836,922.01011 13.74048,39.91925"
       id="path3885-9"
       inkscape:connector-type="polyline"
       inkscape:connector-curvature="0"
       inkscape:connection-start="#rect3004-9-9"
       inkscape:connection-start-point="d4"
       inkscape:connection-end="#g3815-7-3"
       inkscape:connection-end-point="d4" />
    <path
       inkscape:connection-end-point="d4"
       inkscape:connection-end="#rect3004"
       inkscape:connection-start-point="d4"
       inkscape:connection-start="#rect3004-9-9"
       inkscape:connector-curvature="0"
       inkscape:connector-type="polyline"
       id="path3914-1"
       d="M 308.51989,901.10754 228.64158,856.58575"
       style="fill:none;stroke:#000000;stroke-width:1px;stroke-linecap:butt;stroke-linejoin:miter;stroke-opacity:1" />
    <rect
       style="color:#000000;fill:#e0e0e0;fill-opacity:1;stroke:#000000;stroke-width:2;stroke-opacity:1;marker:none;visibility:visible;display:inline;overflow:visible;enable-background:accumulate"
       id="rect3004-9-8"
       width="54.059536"
       height="20.671556"
       x="56.861023"
       y="895.73248"
       rx="7.079566"
       ry="7.079566" />
    <text
       xml:space="preserve"
       style="font-size:8.72983932px;font-style:normal;font-variant:normal;font-weight:normal;font-stretch:normal;text-align:center;line-height:100%;letter-spacing:0px;word-spacing:0px;writing-mode:lr-tb;text-anchor:middle;fill:#000000;fill-opacity:1;stroke:none;font-family:Arial;-inkscape-font-specification:Arial"
       x="83.841751"
       y="908.27417"
       id="text3776-8-3"
       sodipodi:linespacing="100%"><tspan
         sodipodi:role="line"
         id="tspan3778-0-9"
         x="83.841751"
         y="908.27417">Household</tspan></text>
    <g
       id="g3815-72"
       transform="matrix(0.72748659,0,0,0.72748659,-105.42376,249.76384)">
      <rect
         ry="8.8705301"
         rx="8.6101122"
         y="949.83594"
         x="183.95505"
         height="14.634803"
         width="44.244057"
         id="rect3004-5-5"
         style="color:#000000;fill:#e0e0e0;fill-opacity:1;stroke:#000000;stroke-width:1.37459576;stroke-miterlimit:4;stroke-opacity:1;stroke-dasharray:none;marker:none;visibility:visible;display:inline;overflow:visible;enable-background:accumulate" />
      <text
         sodipodi:linespacing="100%"
         id="text3776-4-0"
         y="960.18555"
         x="206.00969"
         style="font-size:8px;font-style:normal;font-variant:normal;font-weight:normal;font-stretch:normal;text-align:center;line-height:100%;letter-spacing:0px;word-spacing:0px;writing-mode:lr-tb;text-anchor:middle;fill:#000000;fill-opacity:1;stroke:none;font-family:Arial;-inkscape-font-specification:Arial"
         xml:space="preserve"><tspan
           y="960.18555"
           x="206.00969"
           id="tspan3778-3-2"
           sodipodi:role="line">Appliance</tspan></text>
    </g>
    <g
       id="g3815-4-4"
       transform="matrix(0.72748659,0,0,0.72748659,-84.96618,264.88917)">
      <rect
         ry="8.8705301"
         rx="8.6101122"
         y="949.83594"
         x="183.95505"
         height="14.634803"
         width="44.244057"
         id="rect3004-5-3-8"
         style="color:#000000;fill:#e0e0e0;fill-opacity:1;stroke:#000000;stroke-width:1.37459576;stroke-miterlimit:4;stroke-opacity:1;stroke-dasharray:none;marker:none;visibility:visible;display:inline;overflow:visible;enable-background:accumulate" />
      <text
         sodipodi:linespacing="100%"
         id="text3776-4-4-0"
         y="960.18555"
         x="206.00969"
         style="font-size:8px;font-style:normal;font-variant:normal;font-weight:normal;font-stretch:normal;text-align:center;line-height:100%;letter-spacing:0px;word-spacing:0px;writing-mode:lr-tb;text-anchor:middle;fill:#000000;fill-opacity:1;stroke:none;font-family:Arial;-inkscape-font-specification:Arial"
         xml:space="preserve"><tspan
           y="960.18555"
           x="206.00969"
           id="tspan3778-3-7-6"
           sodipodi:role="line">Appliance</tspan></text>
    </g>
    <g
       id="g3815-7-2"
       transform="matrix(0.72748659,0,0,0.72748659,-47.048918,264.88917)">
      <rect
         ry="8.8705301"
         rx="8.6101122"
         y="949.83594"
         x="183.95505"
         height="14.634803"
         width="44.244057"
         id="rect3004-5-0-6"
         style="color:#000000;fill:#e0e0e0;fill-opacity:1;stroke:#000000;stroke-width:1.37459576;stroke-miterlimit:4;stroke-opacity:1;stroke-dasharray:none;marker:none;visibility:visible;display:inline;overflow:visible;enable-background:accumulate" />
      <text
         sodipodi:linespacing="100%"
         id="text3776-4-7-5"
         y="960.18555"
         x="206.00969"
         style="font-size:8px;font-style:normal;font-variant:normal;font-weight:normal;font-stretch:normal;text-align:center;line-height:100%;letter-spacing:0px;word-spacing:0px;writing-mode:lr-tb;text-anchor:middle;fill:#000000;fill-opacity:1;stroke:none;font-family:Arial;-inkscape-font-specification:Arial"
         xml:space="preserve"><tspan
           y="960.18555"
           x="206.00969"
           id="tspan3778-3-4-6"
           sodipodi:role="line">Appliance</tspan></text>
    </g>
    <g
       id="g3815-5-6"
       transform="matrix(0.72748659,0,0,0.72748659,-26.591332,249.76384)">
      <rect
         ry="8.8705301"
         rx="8.6101122"
         y="949.83594"
         x="183.95505"
         height="14.634803"
         width="44.244057"
         id="rect3004-5-30-3"
         style="color:#000000;fill:#e0e0e0;fill-opacity:1;stroke:#000000;stroke-width:1.37459576;stroke-miterlimit:4;stroke-opacity:1;stroke-dasharray:none;marker:none;visibility:visible;display:inline;overflow:visible;enable-background:accumulate" />
      <text
         sodipodi:linespacing="100%"
         id="text3776-4-72-4"
         y="960.18555"
         x="206.00969"
         style="font-size:8px;font-style:normal;font-variant:normal;font-weight:normal;font-stretch:normal;text-align:center;line-height:100%;letter-spacing:0px;word-spacing:0px;writing-mode:lr-tb;text-anchor:middle;fill:#000000;fill-opacity:1;stroke:none;font-family:Arial;-inkscape-font-specification:Arial"
         xml:space="preserve"><tspan
           y="960.18555"
           x="206.00969"
           id="tspan3778-3-9-1"
           sodipodi:role="line">Appliance</tspan></text>
    </g>
    <path
       style="fill:none;stroke:#000000;stroke-width:1px;stroke-linecap:butt;stroke-linejoin:miter;stroke-opacity:1"
       d="M 49.735965,940.75675 73.714022,916.40404"
       id="path3873-7"
       inkscape:connector-type="polyline"
       inkscape:connector-curvature="0"
       inkscape:connection-start="#g3815-72"
       inkscape:connection-start-point="d4"
       inkscape:connection-end="#rect3004-9-8"
       inkscape:connection-end-point="d4" />
    <path
       style="fill:none;stroke:#000000;stroke-width:1px;stroke-linecap:butt;stroke-linejoin:miter;stroke-opacity:1"
       d="M 66.780596,955.88208 80.340628,916.40404"
       id="path3875-1"
       inkscape:connector-type="polyline"
       inkscape:connector-curvature="0"
       inkscape:connection-start="#g3815-4-4"
       inkscape:connection-start-point="d4"
       inkscape:connection-end="#rect3004-9-8"
       inkscape:connection-end-point="d4" />
    <path
       style="fill:none;stroke:#000000;stroke-width:1px;stroke-linecap:butt;stroke-linejoin:miter;stroke-opacity:1;display:inline"
       d="M 118.08025,940.75675 94.077878,916.40404"
       id="path3879-3"
       inkscape:connector-type="polyline"
       inkscape:connector-curvature="0"
       inkscape:connection-end="#rect3004-9-8"
       inkscape:connection-end-point="d4"
       inkscape:connection-start="#g3815-5-6"
       inkscape:connection-start-point="d4" />
    <path
       style="fill:none;stroke:#000000;stroke-width:1px;stroke-linecap:butt;stroke-linejoin:miter;stroke-opacity:1"
       d="m 87.448441,916.40404 13.588629,39.47804"
       id="path3885-0"
       inkscape:connector-type="polyline"
       inkscape:connector-curvature="0"
       inkscape:connection-start="#rect3004-9-8"
       inkscape:connection-start-point="d4"
       inkscape:connection-end="#g3815-7-2"
       inkscape:connection-end-point="d4" />
    <path
       inkscape:connection-end-point="d4"
       inkscape:connection-end="#rect3004"
       inkscape:connection-start-point="d4"
       inkscape:connection-start="#rect3004-9-8"
       inkscape:connector-curvature="0"
       inkscape:connector-type="polyline"
       id="path3914-8"
       d="M 102.40822,895.73248 172.53139,856.5922"
       style="fill:none;stroke:#000000;stroke-width:1px;stroke-linecap:butt;stroke-linejoin:miter;stroke-opacity:1" />
    <path
       style="fill:none;stroke:#000000;stroke-width:1.99999988;stroke-linecap:butt;stroke-linejoin:miter;stroke-miterlimit:4;stroke-opacity:1;stroke-dasharray:1.99999988, 15.99999904;stroke-dashoffset:0"
       d="m 44.329695,907.16417 -41.0253302,0"
       id="path4567"
       inkscape:connector-curvature="0" />
    <path
       style="fill:none;stroke:#000000;stroke-width:2;stroke-linecap:butt;stroke-linejoin:miter;stroke-miterlimit:4;stroke-opacity:1;stroke-dasharray:2.00000007, 16.00000053;stroke-dashoffset:0"
       d="m 373.19811,911.16428 46.76675,0"
       id="path4567-3"
       inkscape:connector-curvature="0" />
  </g>
</svg>
